{
  "tiles": [
    {
      "name": "A",
      "points": 1,
      "initialNumber": 5
    },
    {
      "name": "B",
      "points": 3,
      "initialNumber": 3
    },
    {
      "name": "C",
      "points": 3,
      "initialNumber": 2
    },
    {
      "name": "D",
      "points": 2,
      "initialNumber": 4
    },
    {
      "name": "E",
      "points": 1,
      "initialNumber": 12
    },
    {
      "name": "F",
      "points": 4,
      "initialNumber": 2
    },
    {
      "name": "G",
      "points": 2,
      "initialNumber": 3
    },
    {
      "name": "H",
      "points": 4,
      "initialNumber": 2
    },
    {
      "name": "I",
      "points": 1,
      "initialNumber": 9
    },
    {
      "name": "J",
      "points": 8,
      "initialNumber": 1
    },
    {
      "name": "K",
      "points": 5,
      "initialNumber": 1
    },
    {
      "name": "L",
      "points": 1,
      "initialNumber": 4
    },
    {
      "name": "M",
      "points": 3,
      "initialNumber": 2
    },
    {
      "name": "N",
      "points": 1,
      "initialNumber": 6
    },
    {
      "name": "O",
      "points": 1,
      "initialNumber": 8
    },
    {
      "name": "P",
      "points": 3,
      "initialNumber": 2
    },
    {
      "name": "Q",
      "points": 10,
      "initialNumber": 1
    },
    {
      "name": "R",
      "points": 1,
      "initialNumber": 6
    },
    {
      "name": "S",
      "points": 1,
      "initialNumber": 4
    },
    {
      "name": "T",
      "points": 1,
      "initialNumber": 6
    },
    {
      "name": "U",
      "points": 1,
      "initialNumber": 4
    },
    {
      "name": "V",
      "points": 4,
      "initialNumber": 2
    },
    {
      "name": "W",
      "points": 4,
      "initialNumber": 2
    },
    {
      "name": "X",
      "points": 8,
      "initialNumber": 1
    },
    {
      "name": "Y",
      "points": 4,
      "initialNumber": 2
    },
    {
      "name": "Z",
      "points": 10,
      "initialNumber": 1
    },
    {
      "name": "BLANK",
      "points": 0,
      "initialNumber": 2
    }
  ]
}

